[
  {
    "id": 1,
    "name": "Cutting Board set",
    "price": 11.99,
    "url": "./products/img/139485.jpg",
    "article": 139485,
    "color": "Blue"
  },
  {
    "id": 2,
    "name": "Kitchen Towel set",
    "price": 12.38,
    "url": "./products/img/496631.jpg",
    "article": "496631",
    "color": "Turquoise"
  },
  {
    "id": 3,
    "name": "Pots and Pans set",
    "price": 43.89,
    "url": "./products/img/924042.jpg",
    "article": 924042,
    "color": "Lavender"
  },
  {
    "id": 4,
    "name": "Bakeware set",
    "price": 30.77,
    "url": "./products/img/631014.jpg",
    "article": 631014,
    "color": "Latte Brown"
  },
  {
    "id": 5,
    "name": "Utensil Holder",
    "price": 23.39,
    "url": "./products/img/848136.jpg",
    "article": 848136,
    "color": "Antique Copper"
  },
  {
    "id": 6,
    "name": "Salt and Pepper set",
    "price": 13.99,
    "url": "./products/img/174875.jpg",
    "article": 174875,
    "color": "Multicolor"
  },
  {
    "id": 7,
    "name": "Cotton Oven Mitt",
    "price": 3.89,
    "url": "./products/img/183423.jpg",
    "article": 183423,
    "color": "Mint"

  },
  {
    "id": 8,
    "name": "Silicone Utensil set",
    "price": 24.89,
    "currency": "$",
    "url": "./products/img/888720.jpg",
    "article": 888720,
    "color": "Purple"
  },
  {
    "id": 9,
    "name": "Double Wall Tumbler",
    "price": 4.29,
    "url": "./products/img/538532.jpg",
    "article": 538532,
    "color": "Navy"
  },
  {
    "id": 10,
    "name": "Sponge Holder",
    "price": 6.45,
    "url": "./products/img/152720.jpg",
    "article": 152720,
    "color": "Chrome"
  },
  {
    "id": 11,
    "name": "Cooking Tongs",
    "price": 9.62,
    "url": "./products/img/770513.jpg",
    "article": 770513,
    "color": "Green"
  },
  {
    "id": 12,
    "name": "Soup Ladle",
    "price": 21.42,
    "url": "./products/img/266852.jpg",
    "article": 266852,
    "color": "Stainless Steel"
  }
]